{
	"info": {
		"_postman_id": "bc8db9c0-665c-470c-8a22-39991e4db59f",
		"name": "itcraftship.com_laravel-vue-real-estate",
		"schema": "https://schema.getpostman.com/json/collection/v2.1.0/collection.json"
	},
	"item": [
		{
			"name": "developers list",
			"request": {
				"method": "GET",
				"header": [
					{
						"key": "Accept",
						"value": "application/json",
						"type": "text"
					}
				],
				"body": {
					"mode": "raw",
					"raw": ""
				},
				"url": {
					"raw": "http://localhost:8080/api/developers",
					"protocol": "http",
					"host": [
						"localhost"
					],
					"port": "8080",
					"path": [
						"api",
						"developers"
					]
				}
			},
			"response": []
		},
		{
			"name": "countries list",
			"request": {
				"method": "GET",
				"header": [
					{
						"key": "Accept",
						"value": "application/json",
						"type": "text"
					}
				],
				"body": {
					"mode": "raw",
					"raw": ""
				},
				"url": {
					"raw": "http://localhost:8080/api/countries",
					"protocol": "http",
					"host": [
						"localhost"
					],
					"port": "8080",
					"path": [
						"api",
						"countries"
					]
				}
			},
			"response": []
		},
		{
			"name": "real estates list",
			"request": {
				"method": "GET",
				"header": [
					{
						"key": "Accept",
						"value": "application/json",
						"type": "text"
					}
				],
				"body": {
					"mode": "raw",
					"raw": ""
				},
				"url": {
					"raw": "http://localhost:8080/api/real_estates?",
					"protocol": "http",
					"host": [
						"localhost"
					],
					"port": "8080",
					"path": [
						"api",
						"real_estates"
					],
					"query": [
						{
							"key": "country",
							"value": null,
							"disabled": true
						},
						{
							"key": "max_price",
							"value": null,
							"disabled": true
						},
						{
							"key": "is_on_sale",
							"value": null,
							"disabled": true
						}
					]
				}
			},
			"response": []
		},
		{
			"name": "real estate entry",
			"event": [
				{
					"listen": "test",
					"script": {
						"id": "9480bead-45ba-419a-95da-a6bd323ee064",
						"exec": [
							""
						],
						"type": "text/javascript"
					}
				}
			],
			"request": {
				"method": "GET",
				"header": [
					{
						"key": "Accept",
						"value": "application/json",
						"type": "text"
					}
				],
				"body": {
					"mode": "raw",
					"raw": ""
				},
				"url": {
					"raw": "http://localhost:8080/api/real_estates/1",
					"protocol": "http",
					"host": [
						"localhost"
					],
					"port": "8080",
					"path": [
						"api",
						"real_estates",
						"1"
					]
				}
			},
			"response": []
		},
		{
			"name": "create real estate",
			"request": {
				"method": "POST",
				"header": [
					{
						"key": "Accept",
						"value": "application/json",
						"type": "text"
					}
				],
				"body": {
					"mode": "formdata",
					"formdata": [
						{
							"key": "name",
							"value": "Test Real Estate",
							"type": "text"
						},
						{
							"key": "developer",
							"value": "1",
							"type": "text"
						},
						{
							"key": "city",
							"value": "Warsaw",
							"type": "text"
						},
						{
							"key": "country",
							"value": "1",
							"type": "text"
						},
						{
							"key": "price",
							"value": "99999.99",
							"type": "text"
						},
						{
							"key": "is_on_sale",
							"value": "1",
							"type": "text"
						}
					]
				},
				"url": {
					"raw": "http://localhost:8080/api/real_estates",
					"protocol": "http",
					"host": [
						"localhost"
					],
					"port": "8080",
					"path": [
						"api",
						"real_estates"
					]
				}
			},
			"response": []
		}
	]
}